{
	"variables": [],
	"info": {
		"name": "SUST DIARY",
		"_postman_id": "d9cbe694-3872-7735-cdb9-c75e0d773236",
		"description": "",
		"schema": "https://schema.getpostman.com/json/collection/v2.0.0/collection.json"
	},
	"item": [
		{
			"name": "Schools",
			"request": {
				"url": {
					"raw": "http://localhost:8000/api/v1/schools?includes=departments,departments.teachers",
					"protocol": "http",
					"host": [
						"localhost"
					],
					"port": "8000",
					"path": [
						"api",
						"v1",
						"schools"
					],
					"query": [
						{
							"key": "includes",
							"value": "departments,departments.teachers",
							"equals": true,
							"description": ""
						}
					],
					"variable": []
				},
				"method": "GET",
				"header": [],
				"body": {},
				"description": "Schools"
			},
			"response": []
		},
		{
			"name": "Administrations",
			"request": {
				"url": {
					"raw": "http://localhost:8000/api/v1/administrations?includes=admins",
					"protocol": "http",
					"host": [
						"localhost"
					],
					"port": "8000",
					"path": [
						"api",
						"v1",
						"administrations"
					],
					"query": [
						{
							"key": "includes",
							"value": "admins",
							"equals": true,
							"description": ""
						}
					],
					"variable": []
				},
				"method": "GET",
				"header": [],
				"body": {},
				"description": "Schools"
			},
			"response": []
		},
		{
			"name": "Offices",
			"request": {
				"url": {
					"raw": "http://localhost:8000/api/v1/offices?includes=officers",
					"protocol": "http",
					"host": [
						"localhost"
					],
					"port": "8000",
					"path": [
						"api",
						"v1",
						"offices"
					],
					"query": [
						{
							"key": "includes",
							"value": "officers",
							"equals": true,
							"description": ""
						}
					],
					"variable": []
				},
				"method": "GET",
				"header": [],
				"body": {},
				"description": "Schools"
			},
			"response": []
		},
		{
			"name": "Holidays",
			"request": {
				"url": {
					"raw": "http://localhost:8000/api/v1/schools?includes=departments,departments.teachers",
					"protocol": "http",
					"host": [
						"localhost"
					],
					"port": "8000",
					"path": [
						"api",
						"v1",
						"schools"
					],
					"query": [
						{
							"key": "includes",
							"value": "departments,departments.teachers",
							"equals": true,
							"description": ""
						}
					],
					"variable": []
				},
				"method": "GET",
				"header": [],
				"body": {},
				"description": "Schools"
			},
			"response": []
		}
	]
}